<?xml version="1.0" encoding="utf-8"?>
<!-- Generator: Adobe Illustrator 21.1.0, SVG Export Plug-In . SVG Version: 6.00 Build 0)  -->
<svg version="1.1" id="Layer_1" xmlns="http://www.w3.org/2000/svg" xmlns:xlink="http://www.w3.org/1999/xlink" x="0px" y="0px"
	 viewBox="0 0 10 8.5" style="enable-background:new 0 0 10 8.5;" xml:space="preserve">
<path d="M0.8,0h8.4c0.6,0,1,0.7,0.7,1.2L5.7,8.1c-0.3,0.5-1.1,0.5-1.4,0L0.1,1.2C-0.2,0.7,0.2,0,0.8,0z"/>
</svg>
